code/state_handler/simulation/qsim/state_handler.msim.vcd
$comment
	File created using the following command:
		vcd file state_handler.msim.vcd -direction
$end
$date
	Mon Oct 04 16:39:32 2021
$end
$version
	ModelSim Version 2020.1
$end
$timescale
	1ps
$end

$scope module state_handler_vhd_vec_tst $end
$var wire 1 ! CLK $end
$var wire 1 " IS_CORRECT_LETTER [1] $end
$var wire 1 # IS_CORRECT_LETTER [0] $end
$var wire 1 $ LIFE [1] $end
$var wire 1 % LIFE [0] $end
$var wire 1 & START $end
$var wire 1 ' STATE_OUT [2] $end
$var wire 1 ( STATE_OUT [1] $end
$var wire 1 ) STATE_OUT [0] $end

$scope module i1 $end
$var wire 1 * gnd $end
$var wire 1 + vcc $end
$var wire 1 , unknown $end
$var wire 1 - devoe $end
$var wire 1 . devclrn $end
$var wire 1 / devpor $end
$var wire 1 0 ww_devoe $end
$var wire 1 1 ww_devclrn $end
$var wire 1 2 ww_devpor $end
$var wire 1 3 ww_IS_CORRECT_LETTER [1] $end
$var wire 1 4 ww_IS_CORRECT_LETTER [0] $end
$var wire 1 5 ww_START $end
$var wire 1 6 ww_CLK $end
$var wire 1 7 ww_LIFE [1] $end
$var wire 1 8 ww_LIFE [0] $end
$var wire 1 9 ww_STATE_OUT [2] $end
$var wire 1 : ww_STATE_OUT [1] $end
$var wire 1 ; ww_STATE_OUT [0] $end
$var wire 1 < \LIFE[0]~output_o\ $end
$var wire 1 = \LIFE[1]~output_o\ $end
$var wire 1 > \STATE_OUT[0]~output_o\ $end
$var wire 1 ? \STATE_OUT[1]~output_o\ $end
$var wire 1 @ \STATE_OUT[2]~output_o\ $end
$var wire 1 A \IS_CORRECT_LETTER[0]~input_o\ $end
$var wire 1 B \update_life:life_counter[0]~0_combout\ $end
$var wire 1 C \CLK~input_o\ $end
$var wire 1 D \START~input_o\ $end
$var wire 1 E \IS_CORRECT_LETTER[1]~input_o\ $end
$var wire 1 F \Add0~0_combout\ $end
$var wire 1 G \update_life:life_counter[1]~q\ $end
$var wire 1 H \current_state.Lose~2_combout\ $end
$var wire 1 I \current_state.Char0~0_combout\ $end
$var wire 1 J \Equal0~0_combout\ $end
$var wire 1 K \next_state.Char4~5_combout\ $end
$var wire 1 L \next_state.Char0~q\ $end
$var wire 1 M \current_state.Char0~1_combout\ $end
$var wire 1 N \current_state.Char0~2_combout\ $end
$var wire 1 O \current_state.Char0~q\ $end
$var wire 1 P \next_state.Char2~1_combout\ $end
$var wire 1 Q \next_state.Char1~1_combout\ $end
$var wire 1 R \next_state.Char1~q\ $end
$var wire 1 S \current_state.Char1~5_combout\ $end
$var wire 1 T \current_state.Char1~4_combout\ $end
$var wire 1 U \current_state.Char1~q\ $end
$var wire 1 V \next_state.Char4~3_combout\ $end
$var wire 1 W \next_state.Char3~3_combout\ $end
$var wire 1 X \next_state.Char3~q\ $end
$var wire 1 Y \current_state.Char3~2_combout\ $end
$var wire 1 Z \current_state.Char3~q\ $end
$var wire 1 [ \change_state~9_combout\ $end
$var wire 1 \ \next_state.Char2~2_combout\ $end
$var wire 1 ] \next_state.Char2~q\ $end
$var wire 1 ^ \current_state.Char2~2_combout\ $end
$var wire 1 _ \current_state.Char2~q\ $end
$var wire 1 ` \STATE_OUT[2]~2_combout\ $end
$var wire 1 a \next_state.Win~5_combout\ $end
$var wire 1 b \next_state.Win~3_combout\ $end
$var wire 1 c \next_state.Char3~4_combout\ $end
$var wire 1 d \next_state.Win~4_combout\ $end
$var wire 1 e \next_state.Win~q\ $end
$var wire 1 f \current_state.Win~2_combout\ $end
$var wire 1 g \current_state.Win~q\ $end
$var wire 1 h \change_state~8_combout\ $end
$var wire 1 i \current_state.Lose~3_combout\ $end
$var wire 1 j \current_state.Lose~q\ $end
$var wire 1 k \current_state.Waiting~0_combout\ $end
$var wire 1 l \current_state.Waiting~q\ $end
$var wire 1 m \update_life:life_counter[0]~q\ $end
$var wire 1 n \next_state.Char4~4_combout\ $end
$var wire 1 o \next_state.Char4~q\ $end
$var wire 1 p \current_state.Char4~2_combout\ $end
$var wire 1 q \current_state.Char4~q\ $end
$var wire 1 r \STATE_OUT[0]~0_combout\ $end
$var wire 1 s \STATE_OUT[1]~1_combout\ $end
$var wire 1 t \ALT_INV_STATE_OUT[1]~1_combout\ $end
$var wire 1 u \ALT_INV_STATE_OUT[0]~0_combout\ $end
$var wire 1 v \ALT_INV_update_life:life_counter[0]~q\ $end
$var wire 1 w \ALT_INV_update_life:life_counter[1]~q\ $end
$var wire 1 x \ALT_INV_STATE_OUT[2]~2_combout\ $end
$upscope $end
$upscope $end
$enddefinitions $end
#0
$dumpvars
0!
0&
0*
1+
x,
1-
1.
1/
10
11
12
05
06
1<
1=
1>
1?
1@
0A
1B
0C
0D
0E
0F
0G
0H
0I
0J
1K
0L
0M
0N
0O
0P
0Q
0R
0S
1T
0U
0V
0W
0X
0Y
0Z
1[
0\
0]
0^
0_
0`
0a
1b
1c
0d
0e
0f
0g
1h
0i
0j
0k
0l
0m
0n
0o
0p
0q
0r
0s
1t
1u
1v
1w
1x
0"
0#
03
04
17
18
19
1:
1;
1$
1%
1'
1(
1)
$end
#10000
1!
1"
16
13
1E
1C
1J
#20000
0!
0"
06
03
0E
0C
0J
#30000
1!
1&
16
15
1D
1C
1N
1Q
1k
#40000
0!
1#
06
14
1A
0C
#50000
1!
0#
16
04
0A
1C
1L
1O
1R
1l
0Q
0h
1I
1`
1r
1s
0t
0u
0x
0K
1M
0N
0T
1N
0@
0>
0?
09
0;
0:
0)
0(
0'
#60000
0!
0&
06
05
0D
0C
#70000
1!
16
1C
#80000
0!
1"
06
13
1E
0C
1J
1K
1P
1S
1T
1\
0M
0N
#90000
1!
0"
16
03
0E
1C
0O
0R
1U
1]
0J
0K
0P
0S
0T
1M
0[
0I
1P
0r
1u
0M
1N
0N
1>
1;
1)
#100000
0!
06
0C
#110000
1!
16
1C
#120000
0!
06
0C
#130000
1!
1#
16
14
1A
1C
1m
0v
0B
1F
0<
08
0%
#140000
0!
0#
06
04
0A
0C
#150000
1!
1#
16
14
1A
1C
1G
0m
1v
0w
1B
0=
1<
07
18
1%
0$
#160000
0!
06
0C
#170000
1!
0#
16
04
0A
1C
#180000
0!
06
0C
#190000
1!
1#
16
14
1A
1C
1m
0v
0B
0F
1H
1T
1i
0<
08
0%
#200000
0!
06
0C
#210000
1!
0#
1"
16
04
13
1E
0A
1C
0U
1j
1J
1K
0P
1^
0b
0c
0i
0\
1V
1h
0k
1r
1[
0`
1b
0s
1t
1x
0u
1c
0V
0^
0>
1@
1?
0;
19
1:
0)
1(
1'
#220000
0!
0"
06
03
0E
0C
0J
1P
#230000
1!
1"
16
13
1E
1C
0L
0]
0j
0l
1J
0P
0G
0H
0m
0r
1u
1v
1w
1B
1=
1<
1>
17
18
1;
1%
1$
1)
#240000
0!
0"
06
03
0E
0C
0J
#250000
1!
16
1C
#260000
0!
06
0C
#270000
1!
16
1C
#280000
0!
06
0C
#290000
1!
1&
16
15
1D
1C
1N
1Q
1k
#300000
0!
06
0C
#310000
1!
16
1C
1L
1O
1R
1l
0Q
0h
1I
1`
1r
1s
0t
0u
0x
0K
1M
0N
0T
1N
0@
0>
0?
09
0;
0:
0)
0(
0'
#320000
0!
06
0C
#330000
1!
16
1C
#340000
0!
06
0C
#350000
1!
0&
16
05
0D
1C
#360000
0!
1#
06
14
1A
0C
1m
0v
0B
1F
0<
08
0%
#370000
1!
0#
16
04
0A
1C
#380000
0!
1#
06
14
1A
0C
1G
0m
1v
0w
1B
0=
1<
07
18
1%
0$
#390000
1!
0#
16
04
0A
1C
#400000
0!
1"
06
13
1E
0C
1J
1K
1P
1S
1T
1\
0M
0N
#410000
1!
0"
16
03
0E
1C
0O
0R
1U
1]
0J
0K
0P
0S
0T
1M
0[
0I
1P
0r
1u
0M
1N
0N
1>
1;
1)
#420000
0!
1"
06
13
1E
0C
1J
1K
0P
1T
1^
0b
0c
0\
1V
1W
#430000
1!
0"
16
03
0E
1C
0U
1X
0]
1_
0J
0K
1P
0T
0^
1b
1c
0V
1n
1r
0P
1\
0s
1t
0u
0\
0n
0>
1?
0;
1:
0)
1(
#440000
0!
1#
06
14
1A
0C
1m
0v
0B
0F
1H
1T
1i
0<
08
0%
#450000
1!
0#
16
04
0A
1C
0_
1j
1h
0k
1[
0`
1x
1K
0i
0W
1@
19
1'
#460000
0!
06
0C
#470000
1!
16
1C
0L
0X
0j
0l
0G
0H
0m
0r
1u
1v
1w
1B
1=
1<
1>
17
18
1;
1%
1$
1)
#480000
0!
06
0C
#490000
1!
1"
16
13
1E
1C
1J
#500000
0!
06
0C
#510000
1!
0"
16
03
0E
1C
0J
#520000
0!
06
0C
#530000
1!
1"
16
13
1E
1C
1J
#540000
0!
06
0C
#550000
1!
0"
16
03
0E
1C
0J
#560000
0!
06
0C
#570000
1!
16
1C
#580000
0!
06
0C
#590000
1!
16
1C
#600000
0!
06
0C
#610000
1!
16
1C
#620000
0!
06
0C
#630000
1!
1&
16
15
1D
1C
1N
1Q
1k
#640000
0!
06
0C
#650000
1!
16
1C
1L
1O
1R
1l
0Q
0h
1I
1`
1r
1s
0t
0u
0x
0K
1M
0N
0T
1N
0@
0>
0?
09
0;
0:
0)
0(
0'
#660000
0!
06
0C
#670000
1!
16
1C
#680000
0!
0&
06
05
0D
0C
#690000
1!
16
1C
#700000
0!
06
0C
#710000
1!
1"
16
13
1E
1C
1J
1K
1P
1S
1T
1\
0M
0N
#720000
0!
06
0C
#730000
1!
0"
16
03
0E
1C
0O
0R
1U
1]
0J
0K
0P
0S
0T
1M
0[
0I
1P
0r
1u
0M
1N
0N
1>
1;
1)
#740000
0!
06
0C
#750000
1!
1"
16
13
1E
1C
1J
1K
0P
1T
1^
0b
0c
0\
1V
1W
#760000
0!
06
0C
#770000
1!
0"
16
03
0E
1C
0U
1X
0]
1_
0J
0K
1P
0T
0^
1b
1c
0V
1n
1r
0P
1\
0s
1t
0u
0\
0n
0>
1?
0;
1:
0)
1(
#780000
0!
06
0C
#790000
1!
1"
16
13
1E
1C
1J
1K
1T
1Y
0b
0c
0W
1V
1n
#800000
0!
06
0C
#810000
1!
0"
16
03
0E
1C
0X
1Z
0_
1o
0J
0K
0T
0Y
1b
1c
0V
0r
1u
1>
1;
1)
#820000
0!
06
0C
#830000
1!
1"
16
13
1E
1C
1J
1K
1T
0c
1p
1d
0n
1V
#840000
0!
06
0C
#850000
1!
0"
16
03
0E
1C
0Z
1e
0o
1q
0J
0K
0T
1c
0p
0d
0V
1r
1s
1a
1[
0`
1x
0t
0u
1d
0>
0?
1@
0;
0:
19
0)
0(
1'
#860000
0!
06
0C
#870000
1!
1"
16
13
1E
1C
1J
1T
1f
#880000
0!
06
0C
#890000
1!
0"
16
03
0E
1C
1g
0q
0J
0T
0f
0r
1h
0k
1u
1K
1T
0d
1>
1;
1)
#900000
0!
06
0C
#910000
1!
16
1C
0L
0e
0g
0l
0s
0a
1t
1?
1:
1(
#920000
0!
1&
06
15
1D
0C
1N
1Q
1k
#930000
1!
0&
16
05
0D
1C
1L
1O
1R
1l
0N
0Q
0k
0h
1k
1I
1`
1r
1s
0t
0u
0x
0K
1M
0T
1N
0@
0>
0?
09
0;
0:
0)
0(
0'
#940000
0!
06
0C
#950000
1!
16
1C
#960000
0!
06
0C
#970000
1!
16
1C
#980000
0!
06
0C
#990000
1!
16
1C
