code/state_handler/simulation/qsim/state_handler.msim.vcd
$comment
	File created using the following command:
		vcd file state_handler.msim.vcd -direction
$end
$date
	Tue Oct 19 22:20:24 2021
$end
$version
	ModelSim Version 2020.1
$end
$timescale
	1ps
$end

$scope module state_handler_vhd_vec_tst $end
$var wire 1 ! CLK $end
$var wire 1 " LIFE [1] $end
$var wire 1 # LIFE [0] $end
$var wire 1 $ MASK [5] $end
$var wire 1 % MASK [4] $end
$var wire 1 & MASK [3] $end
$var wire 1 ' MASK [2] $end
$var wire 1 ( MASK [1] $end
$var wire 1 ) MASK [0] $end
$var wire 1 * START $end
$var wire 1 + STATE_OUT [2] $end
$var wire 1 , STATE_OUT [1] $end
$var wire 1 - STATE_OUT [0] $end

$scope module i1 $end
$var wire 1 . gnd $end
$var wire 1 / vcc $end
$var wire 1 0 unknown $end
$var wire 1 1 devoe $end
$var wire 1 2 devclrn $end
$var wire 1 3 devpor $end
$var wire 1 4 ww_devoe $end
$var wire 1 5 ww_devclrn $end
$var wire 1 6 ww_devpor $end
$var wire 1 7 ww_MASK [5] $end
$var wire 1 8 ww_MASK [4] $end
$var wire 1 9 ww_MASK [3] $end
$var wire 1 : ww_MASK [2] $end
$var wire 1 ; ww_MASK [1] $end
$var wire 1 < ww_MASK [0] $end
$var wire 1 = ww_LIFE [1] $end
$var wire 1 > ww_LIFE [0] $end
$var wire 1 ? ww_START $end
$var wire 1 @ ww_CLK $end
$var wire 1 A ww_STATE_OUT [2] $end
$var wire 1 B ww_STATE_OUT [1] $end
$var wire 1 C ww_STATE_OUT [0] $end
$var wire 1 D \MASK[0]~input_o\ $end
$var wire 1 E \STATE_OUT[0]~output_o\ $end
$var wire 1 F \STATE_OUT[1]~output_o\ $end
$var wire 1 G \STATE_OUT[2]~output_o\ $end
$var wire 1 H \CLK~input_o\ $end
$var wire 1 I \MASK[5]~input_o\ $end
$var wire 1 J \MASK[1]~input_o\ $end
$var wire 1 K \MASK[2]~input_o\ $end
$var wire 1 L \MASK[3]~input_o\ $end
$var wire 1 M \MASK[4]~input_o\ $end
$var wire 1 N \Add1~0_combout\ $end
$var wire 1 O \letters~0_combout\ $end
$var wire 1 P \START~input_o\ $end
$var wire 1 Q \letters~1_combout\ $end
$var wire 1 R \letters~2_combout\ $end
$var wire 1 S \letters~3_combout\ $end
$var wire 1 T \letters~4_combout\ $end
$var wire 1 U \change_state~13_combout\ $end
$var wire 1 V \next_state.Char4~1_combout\ $end
$var wire 1 W \change_state~14_combout\ $end
$var wire 1 X \next_state.Char3~1_combout\ $end
$var wire 1 Y \next_state.Char3~2_combout\ $end
$var wire 1 Z \next_state.Char3~q\ $end
$var wire 1 [ \current_state.Char3~1_combout\ $end
$var wire 1 \ \LIFE[0]~input_o\ $end
$var wire 1 ] \LIFE[1]~input_o\ $end
$var wire 1 ^ \change_state~12_combout\ $end
$var wire 1 _ \current_state.Char0~0_combout\ $end
$var wire 1 ` \current_state.Char3~q\ $end
$var wire 1 a \change_state~9_combout\ $end
$var wire 1 b \next_state.Char1~2_combout\ $end
$var wire 1 c \next_state.Char4~2_combout\ $end
$var wire 1 d \next_state.Char4~q\ $end
$var wire 1 e \current_state.Char4~0_combout\ $end
$var wire 1 f \current_state.Char4~q\ $end
$var wire 1 g \change_state~8_combout\ $end
$var wire 1 h \next_state.Char1~3_combout\ $end
$var wire 1 i \next_state.Char1~q\ $end
$var wire 1 j \current_state.Char1~0_combout\ $end
$var wire 1 k \current_state.Char1~q\ $end
$var wire 1 l \next_state.Char2~1_combout\ $end
$var wire 1 m \next_state.Char2~2_combout\ $end
$var wire 1 n \next_state.Char1~1_combout\ $end
$var wire 1 o \current_state.Lose~0_combout\ $end
$var wire 1 p \current_state.Lose~1_combout\ $end
$var wire 1 q \current_state.Lose~q\ $end
$var wire 1 r \current_state.Char3~0_combout\ $end
$var wire 1 s \next_state.Char2~4_combout\ $end
$var wire 1 t \next_state.Win~1_combout\ $end
$var wire 1 u \next_state.Win~q\ $end
$var wire 1 v \current_state.Win~0_combout\ $end
$var wire 1 w \current_state.Win~q\ $end
$var wire 1 x \change_state~11_combout\ $end
$var wire 1 y \current_state.Char0~q\ $end
$var wire 1 z \change_state~10_combout\ $end
$var wire 1 { \next_state.Char2~3_combout\ $end
$var wire 1 | \next_state.Char2~q\ $end
$var wire 1 } \current_state.Char2~0_combout\ $end
$var wire 1 ~ \current_state.Char2~q\ $end
$var wire 1 !! \STATE_OUT[0]~0_combout\ $end
$var wire 1 "! \STATE_OUT[1]~1_combout\ $end
$var wire 1 #! \STATE_OUT[2]~2_combout\ $end
$var wire 1 $! \ALT_INV_STATE_OUT[1]~1_combout\ $end
$var wire 1 %! \ALT_INV_STATE_OUT[2]~2_combout\ $end
$var wire 1 &! \ALT_INV_STATE_OUT[0]~0_combout\ $end
$upscope $end
$upscope $end
$enddefinitions $end
#0
$dumpvars
0!
0*
0.
1/
x0
11
12
13
14
15
16
0?
0@
0D
0E
0F
0G
0H
0I
0J
0K
0L
0M
0N
0O
0P
0Q
0R
0S
0T
0U
0V
0W
0X
0Y
0Z
0[
1\
1]
0^
0_
0`
0a
0b
0c
0d
0e
0f
0g
0h
0i
0j
0k
0l
1m
1n
0o
0p
0q
0r
1s
0t
0u
0v
0w
1x
0y
0z
0{
0|
0}
0~
1!!
1"!
1#!
0$!
0%!
0&!
1"
1#
0$
0%
0&
0'
0(
0)
07
08
09
0:
0;
0<
1=
1>
0A
0B
0C
0+
0,
0-
$end
#10000
1!
1'
1)
1@
1<
1:
1K
1D
1H
1N
1O
1z
1b
0n
0s
1{
1_
1h
1j
1r
#20000
0!
0@
0H
#30000
1!
0'
0)
1*
1@
0<
0:
1?
1P
0K
0D
1H
1i
1k
1y
1|
0N
0O
1}
0z
0!!
1W
1l
0j
1&!
0b
1n
1s
0{
0_
0r
0}
1{
1E
1C
1-
#40000
0!
1(
0@
1;
1J
0H
1N
1O
0W
0l
#50000
1!
1@
1H
#60000
0!
0(
0*
0@
0;
0?
0P
0J
0H
0N
0O
1W
1l
#70000
1!
1@
1H
#80000
0!
0@
0H
#90000
1!
1@
1H
#100000
0!
1&
0@
19
1L
0H
1N
1O
0W
0l
#110000
1!
1@
1H
#120000
0!
0&
0@
09
0L
0H
0N
0O
1W
1l
#130000
1!
1%
1@
18
1M
1H
1N
1O
0W
0l
#140000
0!
0@
0H
#150000
1!
1@
1H
#160000
0!
0%
0@
08
0M
0H
0N
0O
1W
1l
#170000
1!
1$
1@
17
1I
1H
1O
0W
0l
#180000
0!
0@
0H
#190000
1!
1@
1H
#200000
0!
0$
0@
07
0I
0H
0O
1W
1l
#210000
1!
1@
1H
#220000
0!
0@
0H
#230000
1!
1(
1'
1)
1@
1<
1;
1:
1K
1J
1D
1H
1R
1T
1X
0m
1b
0n
0s
1Y
1_
1r
1}
0{
#240000
0!
0@
0H
#250000
1!
0(
0'
0)
1@
0<
0;
0:
0K
0J
0D
1H
1Z
0k
0|
1~
0R
0T
1!!
0}
0W
0l
0"!
1[
1$!
0&!
0X
1m
0b
1n
1s
0Y
0E
1F
0[
0_
0r
1Y
0C
1B
0-
1,
#260000
0!
1%
1&
0@
19
18
1M
1L
0H
1R
1T
#270000
1!
1@
1H
#280000
0!
0@
0H
#290000
1!
0%
0&
1*
1@
09
08
1?
1P
0M
0L
1H
0R
0T
#300000
0!
0@
0H
#310000
1!
1(
1$
1@
1;
17
1I
1J
1H
1N
1O
1U
1l
0O
1T
0U
0l
#320000
0!
0@
0H
#330000
1!
1@
1H
#340000
0!
0@
0H
#350000
1!
0(
0$
0*
1@
0;
07
0?
0P
0I
0J
1H
0N
1O
0T
1U
1l
0O
0U
0l
#360000
0!
0@
0H
#370000
1!
1@
1H
#380000
0!
0@
0H
#390000
1!
1@
1H
#400000
0!
1$
1%
1&
0@
19
18
17
1I
1M
1L
0H
1R
1O
1U
1l
1T
1V
0m
1b
0n
0s
1c
1[
1_
1r
0Y
#410000
1!
1@
1H
0Z
1`
1d
0~
0U
0l
0!!
1e
0[
1&!
1m
0V
0c
0b
1n
1s
1E
0_
0e
0r
1c
1C
1-
#420000
0!
0@
0H
#430000
1!
0$
0%
0&
1@
09
08
07
0I
0M
0L
1H
0R
0O
0T
#440000
0!
0@
0H
#450000
1!
1@
1H
#460000
0!
1%
1&
1'
1)
0@
1<
1:
19
18
1M
1L
1K
1D
0H
1N
1R
1O
1T
#470000
1!
1@
1H
#480000
0!
0@
0H
#490000
1!
0%
0&
0'
0)
1@
0<
0:
09
08
0M
0L
0K
0D
1H
0N
0R
0O
0T
#500000
0!
0@
0H
#510000
1!
1@
1H
#520000
0!
0"
0#
0@
0>
0=
0]
0\
0H
1^
1o
1p
1_
#530000
1!
1@
1H
0`
1q
1!!
0#!
1%!
0&!
0E
1G
0C
1A
0-
1+
#540000
0!
1'
1$
1(
0@
1;
1:
17
1I
1K
1J
0H
1R
1O
1T
#550000
1!
1@
1H
#560000
0!
0@
0H
#570000
1!
1@
1H
#580000
0!
0'
0$
0(
0@
0;
0:
07
0I
0K
0J
0H
0R
0O
0T
#590000
1!
1*
1@
1?
1P
1H
0x
1b
0h
0p
0s
0c
#600000
0!
1"
1#
0@
1>
1=
1]
1\
0H
0^
#610000
1!
0*
1@
0?
0P
1H
0d
0i
0q
0y
1x
0_
0b
1p
1s
1"!
1#!
0o
0%!
0$!
0p
0F
0G
0B
0A
0,
0+
#620000
0!
0@
0H
#630000
1!
1'
1)
1@
1<
1:
1K
1D
1H
1N
1O
1z
1b
0n
0s
1{
1_
1h
1j
1r
#640000
0!
0@
0H
#650000
1!
1@
1H
1i
1k
1y
1|
1}
0z
0!!
0j
1&!
0b
1n
1s
0{
0_
0r
0}
1{
1E
1C
1-
#660000
0!
1(
0@
1;
1J
0H
0N
1R
0O
1T
1W
1l
1X
0m
1b
0n
0s
1Y
1_
1r
1}
0{
#670000
1!
1@
1H
1Z
0k
0|
1~
1!!
0}
0W
0l
0"!
1[
1$!
0&!
1m
0X
0Y
0b
1n
1s
0E
1F
0[
0_
0r
1Y
0C
1B
0-
1,
#680000
0!
0@
0H
#690000
1!
1&
1@
19
1L
1H
1N
1O
1U
1l
0m
1V
1c
1b
0n
0s
1[
1_
1r
0Y
#700000
0!
0@
0H
#710000
1!
1@
1H
0Z
1`
1d
0~
0U
0l
0!!
1e
0[
1&!
1m
0V
0c
0b
1n
1s
1E
0_
0e
0r
1c
1C
1-
#720000
0!
1%
0@
18
1M
0H
0N
1Q
0R
0O
1S
0T
1a
1b
0n
1_
1e
1r
0c
1t
#730000
1!
1@
1H
0`
0d
1f
1u
1v
1!!
1"!
0e
0a
0#!
1%!
0$!
0&!
0b
1n
0_
0r
0E
0F
1G
0v
0C
0B
1A
0-
0,
1+
#740000
0!
0@
0H
#750000
1!
1$
1@
17
1I
1H
1O
1g
1_
1r
1v
#760000
0!
0@
0H
#770000
1!
1@
1H
0f
1w
0g
0!!
1&!
0_
0r
1E
1C
1-
#780000
0!
0@
0H
#790000
1!
1@
1H
#800000
0!
0@
0H
#810000
1!
1@
1H
#820000
0!
0@
0H
#830000
1!
1@
1H
#840000
0!
0@
0H
#850000
1!
1@
1H
#860000
0!
0@
0H
#870000
1!
1@
1H
#880000
0!
0@
0H
#890000
1!
1@
1H
#900000
0!
0@
0H
#910000
1!
1@
1H
#920000
0!
1*
0@
1?
1P
0H
0x
1_
1b
0h
0s
0t
0v
#930000
1!
0*
1@
0?
0P
1H
0i
0u
0w
0y
1x
0_
0b
1s
1!!
1#!
0%!
0&!
0E
0G
0C
0A
0-
0+
#940000
0!
0@
0H
#950000
1!
1@
1H
#960000
0!
0@
0H
#970000
1!
1@
1H
#980000
0!
0@
0H
#990000
1!
1@
1H
