code/state_handler/simulation/qsim/state_handler.msim.vcd
$comment
	File created using the following command:
		vcd file state_handler.msim.vcd -direction
$end
$date
	Tue Oct 05 10:57:16 2021
$end
$version
	ModelSim Version 2020.1
$end
$timescale
	1ps
$end

$scope module state_handler_vhd_vec_tst $end
$var wire 1 ! CLK $end
$var wire 1 " LIFE [1] $end
$var wire 1 # LIFE [0] $end
$var wire 1 $ MASK [5] $end
$var wire 1 % MASK [4] $end
$var wire 1 & MASK [3] $end
$var wire 1 ' MASK [2] $end
$var wire 1 ( MASK [1] $end
$var wire 1 ) MASK [0] $end
$var wire 1 * START $end
$var wire 1 + STATE_OUT [2] $end
$var wire 1 , STATE_OUT [1] $end
$var wire 1 - STATE_OUT [0] $end

$scope module i1 $end
$var wire 1 . gnd $end
$var wire 1 / vcc $end
$var wire 1 0 unknown $end
$var wire 1 1 devoe $end
$var wire 1 2 devclrn $end
$var wire 1 3 devpor $end
$var wire 1 4 ww_devoe $end
$var wire 1 5 ww_devclrn $end
$var wire 1 6 ww_devpor $end
$var wire 1 7 ww_MASK [5] $end
$var wire 1 8 ww_MASK [4] $end
$var wire 1 9 ww_MASK [3] $end
$var wire 1 : ww_MASK [2] $end
$var wire 1 ; ww_MASK [1] $end
$var wire 1 < ww_MASK [0] $end
$var wire 1 = ww_LIFE [1] $end
$var wire 1 > ww_LIFE [0] $end
$var wire 1 ? ww_START $end
$var wire 1 @ ww_CLK $end
$var wire 1 A ww_STATE_OUT [2] $end
$var wire 1 B ww_STATE_OUT [1] $end
$var wire 1 C ww_STATE_OUT [0] $end
$var wire 1 D \MASK[0]~input_o\ $end
$var wire 1 E \STATE_OUT[0]~output_o\ $end
$var wire 1 F \STATE_OUT[1]~output_o\ $end
$var wire 1 G \STATE_OUT[2]~output_o\ $end
$var wire 1 H \CLK~input_o\ $end
$var wire 1 I \LIFE[0]~input_o\ $end
$var wire 1 J \LIFE[1]~input_o\ $end
$var wire 1 K \current_state.Char0~0_combout\ $end
$var wire 1 L \MASK[3]~input_o\ $end
$var wire 1 M \MASK[4]~input_o\ $end
$var wire 1 N \MASK[1]~input_o\ $end
$var wire 1 O \MASK[2]~input_o\ $end
$var wire 1 P \letters~0_combout\ $end
$var wire 1 Q \MASK[5]~input_o\ $end
$var wire 1 R \Add1~0_combout\ $end
$var wire 1 S \letters~1_combout\ $end
$var wire 1 T \letters~2_combout\ $end
$var wire 1 U \letters~3_combout\ $end
$var wire 1 V \START~input_o\ $end
$var wire 1 W \next_state.Char1~1_combout\ $end
$var wire 1 X \change_state~11_combout\ $end
$var wire 1 Y \letters~4_combout\ $end
$var wire 1 Z \change_state~9_combout\ $end
$var wire 1 [ \next_state.Char4~1_combout\ $end
$var wire 1 \ \next_state.Char1~q\ $end
$var wire 1 ] \current_state.Char1~0_combout\ $end
$var wire 1 ^ \current_state.Char1~1_combout\ $end
$var wire 1 _ \current_state.Char1~q\ $end
$var wire 1 ` \next_state.Char0~3_combout\ $end
$var wire 1 a \next_state.Char2~1_combout\ $end
$var wire 1 b \next_state.Char2~q\ $end
$var wire 1 c \current_state.Char2~0_combout\ $end
$var wire 1 d \current_state.Char2~q\ $end
$var wire 1 e \next_state.Win~1_combout\ $end
$var wire 1 f \next_state.Win~2_combout\ $end
$var wire 1 g \next_state.Char4~2_combout\ $end
$var wire 1 h \next_state.Win~3_combout\ $end
$var wire 1 i \next_state.Win~q\ $end
$var wire 1 j \current_state.Win~2_combout\ $end
$var wire 1 k \current_state.Win~q\ $end
$var wire 1 l \change_state~12_combout\ $end
$var wire 1 m \current_state.Waiting~q\ $end
$var wire 1 n \current_state.Lose~0_combout\ $end
$var wire 1 o \current_state.Lose~1_combout\ $end
$var wire 1 p \current_state.Lose~q\ $end
$var wire 1 q \current_state.Win~3_combout\ $end
$var wire 1 r \change_state~15_combout\ $end
$var wire 1 s \change_state~16_combout\ $end
$var wire 1 t \next_state.Char3~1_combout\ $end
$var wire 1 u \next_state.Char3~q\ $end
$var wire 1 v \current_state.Char3~0_combout\ $end
$var wire 1 w \current_state.Char3~q\ $end
$var wire 1 x \change_state~8_combout\ $end
$var wire 1 y \change_state~13_combout\ $end
$var wire 1 z \change_state~14_combout\ $end
$var wire 1 { \next_state.Char4~3_combout\ $end
$var wire 1 | \next_state.Char4~q\ $end
$var wire 1 } \current_state.Char4~0_combout\ $end
$var wire 1 ~ \current_state.Char4~q\ $end
$var wire 1 !! \change_state~10_combout\ $end
$var wire 1 "! \current_state.Waiting~0_combout\ $end
$var wire 1 #! \next_state.Char0~q\ $end
$var wire 1 $! \current_state.Char0~1_combout\ $end
$var wire 1 %! \current_state.Char0~2_combout\ $end
$var wire 1 &! \current_state.Char0~q\ $end
$var wire 1 '! \STATE_OUT[0]~0_combout\ $end
$var wire 1 (! \STATE_OUT[1]~1_combout\ $end
$var wire 1 )! \STATE_OUT[2]~2_combout\ $end
$var wire 1 *! \ALT_INV_STATE_OUT[2]~2_combout\ $end
$var wire 1 +! \ALT_INV_STATE_OUT[1]~1_combout\ $end
$var wire 1 ,! \ALT_INV_STATE_OUT[0]~0_combout\ $end
$upscope $end
$upscope $end
$enddefinitions $end
#0
$dumpvars
0!
0*
0.
1/
x0
11
12
13
14
15
16
0?
0@
0D
1E
1F
1G
0H
1I
1J
0K
0L
0M
0N
0O
0P
0Q
0R
0S
0T
0U
0V
0W
1X
0Y
0Z
1[
0\
1]
0^
0_
1`
0a
0b
0c
0d
0e
1f
0g
0h
0i
0j
0k
0l
0m
0n
0o
0p
0q
0r
0s
0t
0u
0v
0w
0x
0y
0z
0{
0|
0}
0~
0!!
0"!
0#!
0$!
0%!
0&!
0'!
0(!
0)!
1*!
1+!
1,!
1"
1#
0$
0%
0&
0'
0(
0)
07
08
09
0:
0;
0<
1=
1>
1A
1B
1C
1+
1,
1-
$end
#10000
1!
1'
1)
1@
1<
1:
1O
1D
1H
1R
1Y
#20000
0!
0@
0H
#30000
1!
0'
0)
1*
1@
0<
0:
1?
1V
0O
0D
1H
0R
1W
1l
1%!
0Y
#40000
0!
1(
0@
1;
1N
0H
1R
1Y
#50000
1!
1@
1H
1\
1m
1#!
1&!
1K
1Z
1'!
1(!
1)!
0W
0X
0*!
0+!
0,!
0]
0%!
1a
1"!
1$!
1%!
1]
1q
0$!
0E
0F
0G
0%!
1^
0C
0B
0A
0-
0,
0+
#60000
0!
0(
0*
0@
0;
0?
0V
0N
0H
0R
0Y
0Z
0[
0a
0"!
0]
0q
1$!
1%!
0^
#70000
1!
1@
1H
#80000
0!
0@
0H
#90000
1!
1@
1H
#100000
0!
1&
0@
19
1L
0H
1R
1Y
1Z
1[
1a
1"!
1]
1q
0$!
0%!
1^
#110000
1!
1@
1H
0\
1_
1b
0&!
0K
0Z
0'!
1c
0^
1,!
0[
0"!
0]
0q
1E
1^
0c
1C
1-
#120000
0!
0&
0@
09
0L
0H
0R
0Y
1e
1r
#130000
1!
1%
1@
18
1M
1H
1R
1Y
0e
0r
#140000
0!
0@
0H
#150000
1!
1@
1H
#160000
0!
0%
0@
08
0M
0H
0R
0Y
1e
1r
#170000
1!
1$
1@
17
1Q
1H
1Y
0e
0r
#180000
0!
0@
0H
#190000
1!
1@
1H
#200000
0!
0$
0@
07
0Q
0H
0Y
1e
1r
#210000
1!
1@
1H
#220000
0!
0@
0H
#230000
1!
1(
1'
1)
1@
1<
1;
1:
1O
1N
1D
1H
1S
1U
0`
0f
1s
1[
1g
1"!
0a
1]
1q
1t
0^
1c
#240000
0!
0@
0H
#250000
1!
0(
0'
0)
1@
0<
0;
0:
0O
0N
0D
1H
0_
0b
1d
1u
0S
0U
1v
1'!
0c
0e
0r
0(!
1+!
0,!
1`
1f
0s
0t
0[
0g
1h
0"!
0E
1F
0]
0q
0h
1t
0C
1B
1c
0v
0-
1,
#260000
0!
1%
1&
0@
19
18
1M
1L
0H
1S
1U
#270000
1!
1@
1H
#280000
0!
0@
0H
#290000
1!
0%
0&
1*
1@
09
08
1?
1V
0M
0L
1H
0S
0U
#300000
0!
0@
0H
#310000
1!
1(
1$
1@
1;
17
1Q
1N
1H
1R
1Y
1e
1y
1U
0Y
0e
0y
#320000
0!
0@
0H
#330000
1!
1@
1H
#340000
0!
0@
0H
#350000
1!
0(
0$
0*
1@
0;
07
0?
0V
0Q
0N
1H
0R
0U
1Y
1e
1y
0Y
0e
0y
#360000
0!
0@
0H
#370000
1!
1@
1H
#380000
0!
0@
0H
#390000
1!
1@
1H
#400000
0!
1$
1%
1&
0@
19
18
17
1Q
1M
1L
0H
1S
1Y
1e
1y
1U
0`
0f
1z
1[
1g
1"!
1]
1q
0t
1{
0c
1v
#410000
1!
1@
1H
0d
0u
1w
1|
1}
0v
0e
0y
0'!
1,!
0z
1`
1f
0[
0g
1h
0"!
0{
1E
0]
0q
0h
1{
1C
1v
0}
1-
#420000
0!
0@
0H
#430000
1!
0$
0%
0&
1@
09
08
07
0Q
0M
0L
1H
0S
0Y
0U
#440000
0!
0@
0H
#450000
1!
1@
1H
#460000
0!
1%
1&
1'
1)
0@
1<
1:
19
18
1M
1L
1O
1D
0H
1R
1S
1U
1Y
#470000
1!
1@
1H
#480000
0!
0@
0H
#490000
1!
0%
0&
0'
0)
1@
0<
0:
09
08
0M
0L
0O
0D
1H
0R
0S
0U
0Y
#500000
0!
0@
0H
#510000
1!
1@
1H
#520000
0!
0"
0#
0@
0>
0=
0J
0I
0H
1n
1]
1o
0v
#530000
1!
1@
1H
1p
0w
0)!
1X
0l
1'!
0,!
1*!
1[
0o
0{
1G
0E
1A
0C
0-
1+
#540000
0!
1'
1$
1(
0@
1;
1:
17
1Q
1O
1N
0H
1S
1Y
1U
#550000
1!
1@
1H
0m
0p
0|
0#!
0'!
0n
1,!
1E
1C
1-
#560000
0!
0@
0H
#570000
1!
1@
1H
#580000
0!
0'
0$
0(
0@
0;
0:
07
0Q
0O
0N
0H
0S
0Y
0U
#590000
1!
1*
1@
1?
1V
1H
1W
1l
1%!
#600000
0!
1"
1#
0@
1>
1=
1J
1I
0H
#610000
1!
0*
1@
0?
0V
1H
1\
1m
1#!
1&!
0W
0l
0%!
1K
1'!
1(!
1)!
0X
1l
0*!
0+!
0,!
0[
0]
1$!
1%!
0E
0F
0G
0C
0B
0A
0-
0,
0+
#620000
0!
0@
0H
#630000
1!
1'
1)
1@
1<
1:
1O
1D
1H
1R
1Y
1Z
1[
1a
1"!
1]
1q
0$!
0%!
1^
#640000
0!
0@
0H
#650000
1!
1@
1H
0\
1_
1b
0&!
0K
0Z
0'!
1c
0^
1,!
0[
0"!
0]
0q
1E
1^
0c
1C
1-
#660000
0!
1(
0@
1;
1N
0H
0R
1S
1U
0Y
1e
1r
0`
0f
1s
1[
1g
1"!
0a
1]
1q
1t
0^
1c
#670000
1!
1@
1H
0_
0b
1d
1u
1v
1'!
0c
0e
0r
0(!
1+!
0,!
0s
1`
1f
0[
0g
1h
0"!
0t
0E
1F
0]
0q
0h
1t
0C
1B
1c
0v
0-
1,
#680000
0!
0@
0H
#690000
1!
1&
1@
19
1L
1H
1R
1Y
1e
1y
1z
0`
0f
1[
1g
1"!
1]
1q
0t
1{
0c
1v
#700000
0!
0@
0H
#710000
1!
1@
1H
0d
0u
1w
1|
1}
0v
0e
0y
0'!
1,!
0z
1`
1f
0[
0g
1h
0"!
0{
1E
0]
0q
0h
1{
1C
1v
0}
1-
#720000
0!
1%
0@
18
1M
0H
1P
0R
0S
0U
0Y
1T
1x
1[
0`
1g
1"!
1]
1q
1h
0{
0v
1}
#730000
1!
1@
1H
1i
0w
0|
1~
1'!
1(!
0}
0x
0)!
1j
1*!
0+!
0,!
0[
1`
0g
0"!
0]
0j
0q
0E
0F
1G
1}
0C
0B
1A
0-
0,
1+
#740000
0!
0@
0H
#750000
1!
1$
1@
17
1Q
1H
1Y
1!!
1"!
1]
1j
1q
0}
#760000
0!
0@
0H
#770000
1!
1@
1H
1k
0~
0!!
0'!
1X
0l
0q
1,!
1[
0j
0"!
0h
1E
1C
1-
#780000
0!
0@
0H
#790000
1!
1@
1H
0i
0k
0m
0#!
0(!
1+!
1F
1B
1,
#800000
0!
0@
0H
#810000
1!
1@
1H
#820000
0!
0@
0H
#830000
1!
1@
1H
#840000
0!
0@
0H
#850000
1!
1@
1H
#860000
0!
0@
0H
#870000
1!
1@
1H
#880000
0!
0@
0H
#890000
1!
1@
1H
#900000
0!
0@
0H
#910000
1!
1@
1H
#920000
0!
1*
0@
1?
1V
0H
1W
1l
1%!
#930000
1!
0*
1@
0?
0V
1H
1\
1m
1#!
1&!
0W
0l
0%!
1K
1'!
1(!
1)!
0X
1l
0*!
0+!
0,!
0[
0]
1$!
1%!
0E
0F
0G
0C
0B
0A
0-
0,
0+
#940000
0!
0@
0H
#950000
1!
1@
1H
#960000
0!
0@
0H
#970000
1!
1@
1H
#980000
0!
0@
0H
#990000
1!
1@
1H
